name,category,type,basis,directory
fredholm,Integro-differential,Linear,ChebyshevU,integro-differential/linear_ide
fredholm_non_polynomial_coefficients,Integro-differential,Linear,ChebyshevT,integro-differential/linear_ide
fredholm_non_polynomial_coefficients_compare,Integro-differential,Linear,ChebyshevU,integro-differential/linear_ide
fredholmvolterra_2,Integro-differential,Linear,LegendreP,integro-differential/linear_ide
fredholmvolterra,Integro-differential,Linear,ChebyshevT,integro-differential/linear_ide
volterra_Hosseini2002,Integro-differential,Linear,ChebyshevT,integro-differential/linear_ide
volterra,Integro-differential,Linear,ChebyshevT,integro-differential/linear_ide
volterra_Yang2013Rabbani2007_ex1,Integro-differential,Linear,ChebyshevT,integro-differential/linear_ide
volterra_Yang2013Rabbani2007_ex2,Integro-differential,Linear,LegendreP,integro-differential/linear_ide
wikipedia,Integro-differential,Linear,ChebyshevT,integro-differential/linear_ide
Bessel_equation,Differential,Linear,ChebyshevT,integro-differential/linear_ode
bvp,Differential,Linear,ChebyshevU,integro-differential/linear_ode
bvp_piecewise,Differential,Linear,LegendreP,integro-differential/linear_ode
butterfly,Differential,Linear,ChebyshevT,integro-differential/linear_ode
GeronoLemniscate,Differential,Linear,ChebyshevT,integro-differential/linear_ode
GeronoLemniscate_piecewise,Differential,Linear,ChebyshevT,integro-differential/linear_ode
ivp,Differential,Linear,LegendreP,integro-differential/linear_ode
Legendre,Differential,Linear,ChebyshevT,integro-differential/linear_ode
OlverTownsend,Differential,Linear,ChebyshevT,integro-differential/linear_ode
sign_function_with_non_polynomial_coefficients,Differential,Linear,ChebyshevT,integro-differential/linear_ode
sign_function_with_polynomial_coefficients,Differential,Linear,LegendreP,integro-differential/linear_ode
stiff_OlverTownsend_paper,Differential,Linear,LegendreP,integro-differential/linear_ode
system_polynomial_solution,Differential,Linear,ChebyshevT,integro-differential/linear_ode
system_high_order_derivatives_alternative,Differential,Linear,LegendreP,integro-differential/linear_ode
system_high_order_derivatives,Differential,Linear,LegendreP,integro-differential/linear_ode
tau_logo,Differential,Linear,ChebyshevT,integro-differential/linear_ide
fredholm_Dehghan2012_ex1,Integro-differential,Nonlinear,ChebyshevT,integro-differential/nonlinear_ide
fredholm_Dehghan2012_ex2,Integro-differential,Nonlinear,ChebyshevT,integro-differential/nonlinear_ide
basic,Differential,Nonlinear,LegendreP,integro-differential/nonlinear_ode
dna2,Differential,Nonlinear,LegendreP,integro-differential/nonlinear_ode
lambertWfunction,Differential,Nonlinear,LegendreP,integro-differential/nonlinear_ode
linearized_simple,Differential,Nonlinear,ChebyshevT,integro-differential/nonlinear_ode
lorenz,Differential,Nonlinear,LegendreP,integro-differential/nonlinear_ode
lotka_volterra,Differential,Nonlinear,ChebyshevT,integro-differential/nonlinear_ode
three_scroll_unified,Differential,Nonlinear,LegendreP,integro-differential/nonlinear_ode
with_cos_as_nonlinearity,Differential,Nonlinear,ChebyshevT,integro-differential/nonlinear_ode
Coffey_Evans_advanced,Eigenvalues,,ChebyshevT,eigenvalue
Coffey_Evans_basic,Eigenvalues,,ChebyshevT,eigenvalue
Coffey_Evans_intermediate,Eigenvalues,,ChebyshevT,eigenvalue
Loaded_string_GEP_advanced,Eigenvalues,,ChebyshevT,eigenvalue
Loaded_string_advanced,Eigenvalues,,ChebyshevT,eigenvalue
Orr_Sommerfeld_advanced,Eigenvalues,,ChebyshevT,eigenvalue
Ortiz_Samara_basic,Eigenvalues,,ChebyshevT,eigenvalue
Ortiz_Samara_intermediate,Eigenvalues,,ChebyshevT,eigenvalue
Sturm_Liouville_advanced,Eigenvalues,,ChebyshevT,eigenvalue
Sturm_Liouville_basic,Eigenvalues,,ChebyshevT,eigenvalue
Sturm_Liouville_intermediate,Eigenvalues,,ChebyshevT,eigenvalue
